R_test_GPID_LC
…
`summarise()` has grouped output by 'region'. You can override using the
`.groups` argument.

# Round all numeric columns in wdata
wdata2 <- wdata2 %>% 
  mutate_if(is.numeric, ~ round(., digits = 0))

`mutate_if()` ignored the following grouping variables:
• Column `region`

print(wdata2)

# A tibble: 218 × 7
# Groups:   region [7]
   region               date     N  Mean    SD   Min   Max
   <chr>               <dbl> <dbl> <dbl> <dbl> <dbl> <dbl>
 1 East Asia & Pacific  1990    22  4913  8696   582 32846
 2 East Asia & Pacific  1991    22  5105  8895   579 33870
 3 East Asia & Pacific  1992    22  5291  8871   597 34049
 4 East Asia & Pacific  1993    22  5483  8778   635 33783
 5 East Asia & Pacific  1994    22  5740  8822   669 34054
 6 East Asia & Pacific  1995    22  6037  9003   709 34868
 7 East Asia & Pacific  1996    22  6340  9223   746 35879
 8 East Asia & Pacific  1997    22  6538  9258   782 36145
 9 East Asia & Pacific  1998    22  6449  9031   817 36099
10 East Asia & Pacific  1999    22  6635  9044   875 37476
# ℹ 208 more rows
…
wdata3 <- wdata3 %>% 
  arrange(factor(stat, levels=c("mean","sd","min","max","median" )))

# Round all numeric columns in wdata
wdata3 <- wdata3 %>% 
  mutate_if(is.numeric, ~ round(., digits = 3))

`mutate_if()` ignored the following grouping variables:
• Column `region`

# Print the result
print(wdata3)

# A tibble: 1,090 × 7
# Groups:   region [7]
   region               date total_population stat  lifeex   gdp pov_intl
   <chr>               <dbl>            <dbl> <chr>  <dbl> <dbl>    <dbl>
 1 East Asia & Pacific  1990       1754166013 mean    68.2 4913.    0.59 
 2 East Asia & Pacific  1991       1779284317 mean    68.4 5105.    0.573
 3 East Asia & Pacific  1992       1802946756 mean    68.9 5291.    0.55 
 4 East Asia & Pacific  1993       1825777375 mean    69.3 5483.    0.523
 5 East Asia & Pacific  1994       1848480100 mean    69.6 5740.    0.483
 6 East Asia & Pacific  1995       1870755748 mean    70.0 6037.    0.45 
 7 East Asia & Pacific  1996       1892721009 mean    70.3 6340.    0.41 
 8 East Asia & Pacific  1997       1914534267 mean    70.7 6538.    0.408
 9 East Asia & Pacific  1998       1935514675 mean    71.1 6449.    0.417
10 East Asia & Pacific  1999       1955084080 mean    71.3 6635.    0.386
# ℹ 1,080 more rows
…
outliers_by_region_date <- outliers_summary %>%
  left_join(outliers, by = "date") %>%
  group_by(region, date) %>%
  summarise(
    gdp.out = sum(gdp.ub == 1 | gdp.lb == 1, na.rm = TRUE),
    lifeex.out = sum(lifeex.ub == 1 | lifeex.lb == 1, na.rm = TRUE),
    gini.out = sum(gini.ub == 1 | gini.lb == 1, na.rm = TRUE)
  )

`summarise()` has grouped output by 'region'. You can override using the
`.groups` argument.

print(outliers_by_region_date) # This table shows the total number of outliers above and below 2.5 standard deviations from the mean.

# A tibble: 207 × 5
# Groups:   region [7]
   region               date gdp.out lifeex.out gini.out
   <chr>               <dbl>   <int>      <int>    <int>
 1 East Asia & Pacific  1990       3          0        0
 2 East Asia & Pacific  1992       4          0        0
 3 East Asia & Pacific  1993       2          0        0
 4 East Asia & Pacific  1994       1          0        0
 5 East Asia & Pacific  1995       3          3        0
 6 East Asia & Pacific  1996       4          0        4
 7 East Asia & Pacific  1997       3          0        0
 8 East Asia & Pacific  1998       3          0        0
 9 East Asia & Pacific  1999       3          0        0
10 East Asia & Pacific  2000       4          0        4
# ℹ 197 more rows
…
# Calculate the FGT indices for each poverty line and bind the results
poverty_indicators<- poverty_lines %>%
  map_df(~ calculate_FGT(survey_data, .))

# Print the combined results data frame
print(poverty_indicators)

# A tibble: 30 × 5
    year Headcount_Ratio Poverty_Gap Poverty_Severity Poverty_Line
   <dbl>           <dbl>       <dbl>            <dbl>        <dbl>
 1  2001     0.542          4.23e- 1         3.80e- 1         2.15
 2  2002     0.498          3.61e- 1         3.13e- 1         2.15
 3  2003     0.450          2.95e- 1         2.41e- 1         2.15
 4  2004     0.389          2.16e- 1         1.58e- 1         2.15
 5  2005     0.319          1.34e- 1         7.73e- 2         2.15
 6  2006     0.227          6.55e- 2         2.66e- 2         2.15
 7  2007     0.124          2.14e- 2         5.40e- 3         2.15
 8  2008     0.0274         1.99e- 3         2.21e- 4         2.15
 9  2009     0.000000328    7.07e-10         2.14e-12         2.15
10  2010     0              0                0                2.15
# ℹ 20 more rows
…
